<?xml version="1.0" encoding="utf-8"?>
<!-- Generator: Adobe Illustrator 24.2.3, SVG Export Plug-In . SVG Version: 6.00 Build 0)  -->
<svg version="1.1" id="Layer_1" xmlns="http://www.w3.org/2000/svg" xmlns:xlink="http://www.w3.org/1999/xlink" x="0px" y="0px"
	 viewBox="0 0 512 512" style="enable-background:new 0 0 512 512;" xml:space="preserve">
<style type="text/css">
	.st0{fill:#43C4D1;}
	.st1{fill:#A7CF38;}
	.st2{fill:#FFE2C3;}
	.st3{fill:#FED2A4;}
	.st4{fill:#C7DB50;}
</style>
<circle class="st0" cx="256" cy="256" r="220.3"/>
<path class="st1" d="M279.4,246.9h-8.9v-5.4h15.3c4.7,0,8.5-3.8,8.5-8.5s-3.8-8.5-8.5-8.5h-15.3v-0.1c0-4.7-3.8-8.5-8.5-8.5
	c-4.7,0-8.5,3.8-8.5,8.5v0.1h-8.9c-10.9,0-19.7,8.8-19.7,19.7c0,10.9,8.9,19.7,19.7,19.7h8.9v6.6h-15.3c-4.7,0-8.5,3.8-8.5,8.5
	s3.8,8.5,8.5,8.5h15.3v0.1c0,4.7,3.8,8.5,8.5,8.5c4.7,0,8.5-3.8,8.5-8.5v-0.1h8.9c10.9,0,19.7-8.8,19.7-19.7v-1.2
	C299.1,255.8,290.2,246.9,279.4,246.9z M244.4,246.9c-1.5,0-2.7-1.2-2.7-2.7s1.2-2.7,2.7-2.7h8.9v5.3h-8.9V246.9z M282,267.8
	c0,1.5-1.2,2.7-2.7,2.7h-8.9v-6.6h8.9c1.5,0,2.7,1.2,2.7,2.7V267.8z"/>
<path class="st2" d="M359.8,124.4l-91.4-9.6c-9-0.9-18,0.8-25.9,5.1l-86.2,48.4c-0.4,0.2-0.8,0.5-1.2,0.7c-9.8,7.5-12.6,20-7,30.4
	c5,9.1,16.9,15.9,32.3,10.4c0.3-0.1,0.6-0.2,0.9-0.4l57.2-30.9c1.4,7.7,6.4,14.5,13.6,17.4c0.2,0.1,0.4,0.2,0.6,0.2
	c5.4,1.7,11,3.6,16.4,5.5c18.6,6.4,37.9,13.1,57.1,13.1c14.5,0,41.1-11.1,41.1-29.2V133C367.4,128.7,364.1,124.9,359.8,124.4z"/>
<path class="st3" d="M373.7,184.2l-1.8-18.5H257.5c-20.2,0-23.4,12-23.9,15.7c-1.2,9.3,5.3,19.2,14.2,21.6l0.3,0.1
	c2.6,0.5,5.3,1,8.1,1.6c21.9,4.2,50.7,9.7,72.3,9.7c3.6,0,7.1-0.2,10.2-0.5c6.6-0.7,15.4-4.5,22.4-9.5
	C370,197.9,374.4,190.8,373.7,184.2z"/>
<path class="st1" d="M398.7,115.7h-34.1c-4.7,0-8.5,4.1-8.5,9.2v81.7c0,5.1,3.8,9.2,8.5,9.2h34.1c4.7,0,8.5-4.1,8.5-9.2v-81.7
	C407.3,119.7,403.4,115.7,398.7,115.7z"/>
<path class="st4" d="M407.3,124.8c0-5.1-3.8-9.2-8.5-9.2h-34.1c-4.7,0-8.5,4.1-8.5,9.2v40.8h51.2v-40.8H407.3z"/>
<path class="st3" d="M164.1,387.5l91.4,9.6c9,0.9,18-0.8,25.9-5.1l86.2-48.4c0.4-0.2,0.8-0.5,1.2-0.7c9.8-7.5,12.6-20,7-30.4
	c-5-9.1-16.9-15.9-32.3-10.4c-0.3,0.1-0.6,0.2-0.9,0.4l-57.2,30.9c-1.4-7.7-6.4-14.5-13.6-17.4c-0.2-0.1-0.4-0.2-0.6-0.2
	c-5.4-1.7-11-3.6-16.4-5.5c-18.6-6.4-37.9-13.1-57.1-13.1c-14.5,0-41.1,11.1-41.1,29.2v52.5C156.5,383.4,159.8,387.1,164.1,387.5z"
	/>
<path class="st2" d="M150.2,327.9l1.8,18.5h114.4c20.2,0,23.4-12,23.9-15.7c1.2-9.3-5.3-19.2-14.2-21.6l-0.3-0.1
	c-2.6-0.5-5.3-1-8.1-1.6c-21.9-4.2-50.7-9.7-72.3-9.7c-3.6,0-7.1,0.2-10.2,0.5c-6.6,0.7-15.4,4.5-22.4,9.5
	C153.9,314,149.5,321.3,150.2,327.9z"/>
<path class="st4" d="M125.2,396.4h34.1c4.7,0,8.5-4.1,8.5-9.2v-81.7c0-5.1-3.8-9.2-8.5-9.2h-34.1c-4.7,0-8.5,4.1-8.5,9.2v81.7
	C116.7,392.3,120.5,396.4,125.2,396.4z"/>
<path class="st1" d="M116.7,387.3c0,5.1,3.8,9.2,8.5,9.2h34.1c4.7,0,8.5-4.1,8.5-9.2v-40.8h-51.2L116.7,387.3L116.7,387.3z"/>
<path class="st4" d="M261.9,215.9c-4.7,0-8.5,3.8-8.5,8.5v0.1h-8.9c-10.9,0-19.7,8.8-19.7,19.7c0,10.9,8.9,19.7,19.7,19.7h8.9v6.6
	h-15.3c-4.7,0-8.5,3.8-8.5,8.5s3.8,8.5,8.5,8.5h15.3v0.1c0,4.7,3.8,8.5,8.5,8.5V215.9z M253.4,246.9h-8.9c-1.5,0-2.7-1.2-2.7-2.7
	s1.2-2.7,2.7-2.7h8.9V246.9z"/>
</svg>
