<?xml version="1.0" encoding="utf-8"?>
<!-- Generator: Adobe Illustrator 24.2.3, SVG Export Plug-In . SVG Version: 6.00 Build 0)  -->
<svg version="1.1" id="Layer_1" xmlns="http://www.w3.org/2000/svg" xmlns:xlink="http://www.w3.org/1999/xlink" x="0px" y="0px"
	 viewBox="0 0 512 512" style="enable-background:new 0 0 512 512;" xml:space="preserve">
<style type="text/css">
	.st0{fill:#4E79E5;}
	.st1{fill:#F4F4F4;}
</style>
<circle class="st0" cx="256" cy="256" r="236.5"/>
<path class="st1" d="M117.2,223.9c2.2,0.3,4.3-1.1,4.9-3.3c1-3.8,4.6-14.8,9.1-19.6c5.9-5.7,13.8-8.9,22-8.9h0.2
	c8.2,0,16,3.2,21.8,8.9c5.7,5.9,8.9,13.8,9,22c0,2.5,2,4.5,4.5,4.5s4.5-2,4.5-4.5c-0.3-16.8,13.2-30.7,30-30.9c0.4,0,0.7,0,1.1,0
	c8.2,0,16,3.2,21.8,8.9c5.7,5.9,8.9,13.8,9,22v40.5c0,2.5,2,4.5,4.5,4.5s4.5-2,4.5-4.5V223c-0.3-16.8,13.2-30.7,30-30.9
	c0.3,0,0.6,0,1,0h0.1c8.2,0,16,3.2,21.8,8.9c5.7,5.9,8.9,13.8,9,22c0,2.5,2,4.5,4.5,4.5s4.5-2,4.5-4.5c-0.3-16.8,13.2-30.7,30-30.9
	c0.3,0,0.6,0,1,0c8.2-0.1,16.1,3.1,22,8.9c4.5,4.8,8.1,15.8,9.1,19.6c0.6,2.4,3.1,3.8,5.4,3.2c1.9-0.5,3.3-2.3,3.3-4.3v-0.2
	c0-80.4-65.5-145.8-145.9-145.8h-0.3c-80.6,0.1-145.8,65.4-145.8,146C113.4,221.7,115,223.6,117.2,223.9L117.2,223.9z M162.3,122.6
	c25.6-25.8,60.5-40.3,96.8-40.2h0.2h0.1c67.3,0,123.4,48.8,134.8,112.8c-0.1-0.1-0.3-0.3-0.4-0.4l-0.1-0.1
	c-7.5-7.4-17.7-11.6-28.3-11.5c-10.5,0-20.6,4.1-28.2,11.4c-0.1,0.1-0.1,0.1-0.2,0.2c-2.8,2.9-5.1,6.2-7,9.8c-1.9-3.6-4.2-6.9-7-9.8
	l-0.1-0.1c-7.5-7.4-17.6-11.5-28.1-11.5h-0.2c-10.5,0-20.6,4.1-28.2,11.4c-0.1,0.1-0.1,0.1-0.2,0.2c-2.8,2.9-5.1,6.2-7,9.8
	c-1.9-3.6-4.2-6.9-7-9.8l-0.1-0.1c-7.5-7.4-17.7-11.6-28.3-11.5c-10.5,0-20.6,4.1-28.2,11.4c-0.1,0.1-0.1,0.1-0.2,0.2
	c-2.8,2.9-5.1,6.2-7,9.8c-1.9-3.6-4.2-6.9-7-9.8l-0.1-0.1c-7.5-7.4-17.7-11.6-28.3-11.5c-10.5,0-20.6,4.1-28.2,11.4
	c-0.1,0.1-0.1,0.1-0.2,0.2c-0.1,0.2-0.3,0.3-0.4,0.5C129.2,167.7,142.5,142.3,162.3,122.6L162.3,122.6z"/>
<path class="st1" d="M165.4,314v34.2c0,2.5,2,4.5,4.5,4.5H180l4.5,81.6c0.1,2.4,2.1,4.2,4.4,4.2h42.6c2.4,0,4.3-1.9,4.4-4.2
	l2.3-44.2h2.6l4.3,44.4c0.2,2.3,2.1,4,4.4,4h22.2c2.3,0,4.2-1.8,4.4-4l3.9-43.3l2.7,43.1c0.1,2.3,2.1,4.2,4.4,4.2H330
	c2.4,0,4.3-1.8,4.4-4.2l4.2-75.1h10.2c2.5,0,4.5-2,4.5-4.5v-27.6c0-17.3-14.1-31.3-31.4-31.3l0,0h-26.7c-6.2,0-12.3,1.9-17.5,5.4
	c-3.4-6.2-9.9-10.1-17-10.1l0,0c-4.4,0-8.6,1.5-12,4.2c-5.9-7.9-15.2-12.6-25.1-12.6l0,0h-26.7C179.4,282.7,165.4,296.8,165.4,314
	L165.4,314z M276.3,381.2c-2.3,0-4.2,1.8-4.4,4l-4,44.4h-14.1l-4.3-44.4c-0.2-2.3-2.1-4-4.4-4h-9.7v-14.5c0-12.2,9.9-22.1,22.1-22.1
	h6.5l0,0c12.2,0,22.1,9.9,22.1,22.1v14.5H276.3z M260.6,300L260.6,300c5.8,0,10.5,4.7,10.5,10.4c0,5.8-4.7,10.4-10.5,10.4l0,0l0,0
	c-5.8,0.1-10.5-4.6-10.5-10.3s4.6-10.5,10.3-10.5C260.5,300,260.6,300,260.6,300L260.6,300z M196.7,291.6h26.7l0,0
	c7.5,0,14.4,3.7,18.6,9.9c0.3,0.4,0.5,0.8,0.8,1.3c-4.2,9.8,0.3,21.2,10.1,25.4c2.4,1.1,5,1.6,7.7,1.6l0,0
	c10.6,0,19.2-8.5,19.3-19.1c0.4-0.3,0.7-0.7,1.1-1c4-3.2,8.9-5,14-5h26.7l0,0c12.4,0,22.4,10,22.5,22.4v23.1h-9.9
	c-2.4,0-4.3,1.8-4.4,4.2l-4.2,75.1h-34.2L289,390h1.4c2.5,0,4.5-2,4.5-4.5v-19c0-17.1-13.9-31-31-31l0,0h-6.5c-17.1,0-31,13.9-31,31
	v19c0,1.9,1.2,3.6,3,4.2l-2.1,39.7h-34.2l-4.5-81.7c-0.1-2.4-2.1-4.2-4.4-4.2h-9.9v-29.7C174.3,301.7,184.3,291.6,196.7,291.6
	L196.7,291.6z"/>
<path class="st1" d="M210,274.3c13.6,0,24.6-11,24.6-24.6s-11-24.6-24.6-24.6l0,0c-13.6,0-24.6,11-24.6,24.6S196.3,274.3,210,274.3
	L210,274.3z M194.2,249.7c0-8.7,7.1-15.7,15.7-15.7l0,0c8.7,0,15.7,7,15.7,15.7s-7,15.7-15.7,15.7l0,0l0,0
	C201.3,265.4,194.2,258.4,194.2,249.7z"/>
<path class="st1" d="M308.4,287.5c9.2,0,17.6-5.1,21.9-13.3h2.7c8.3,0.1,15-6.5,15.1-14.8c0.1-8.3-6.5-15-14.8-15.1
	c-0.1,0-0.2,0-0.3,0h-8.4c-4.5-3.9-10.2-6-16.1-6l0,0c-13.6-0.1-24.7,10.9-24.7,24.5C283.7,276.4,294.7,287.5,308.4,287.5
	C308.2,287.5,308.3,287.5,308.4,287.5L308.4,287.5z M339,259.2c0,3.3-2.7,6-6,6l0,0c0.1-0.8,0.1-1.6,0.1-2.4c0-3.3-0.7-6.6-2-9.7
	h1.9C336.3,253.2,339,255.9,339,259.2L339,259.2z M292.6,262.9c0-8.7,7-15.7,15.7-15.7l0,0c8.7-0.1,15.8,6.9,15.8,15.6
	c0.1,8.7-6.9,15.8-15.6,15.8c-0.1,0-0.1,0-0.2,0l0,0C299.7,278.6,292.6,271.5,292.6,262.9L292.6,262.9z"/>
</svg>
